[gd_scene load_steps=2 format=3 uid="uid://d0ikwh0oju2gl"]

[ext_resource type="Script" path="res://scripts/square.gd" id="1_w5m1h"]

[node name="Square" type="ColorRect" groups=["squares"]]
visibility_layer = 4
z_as_relative = false
custom_minimum_size = Vector2(100, 100)
mouse_filter = 1
mouse_default_cursor_shape = 2
script = ExtResource("1_w5m1h")

[connection signal="gui_input" from="." to="." method="_on_gui_input"]
[connection signal="mouse_entered" from="." to="." method="_on_mouse_entered"]
