; Engine configuration file.
; It's best edited using the editor UI and not directly,
; since the parameters that go here are not all obvious.
;
; Format:
;   [section] ; section goes between []
;   param=value ; assign values to parameters

config_version=5

[application]

config/name="knights"
run/main_scene="res://scenes/game.tscn"
config/features=PackedStringArray("4.3", "GL Compatibility")

[autoload]

Globals="*res://scripts/globals.gd"

[display]

window/size/viewport_width=1000
window/size/viewport_height=1000
window/stretch/mode="canvas_items"

[dotnet]

project/assembly_name="knights"

[rendering]

renderer/rendering_method="gl_compatibility"
renderer/rendering_method.mobile="gl_compatibility"
textures/vram_compression/import_etc2_astc=true
