[gd_scene load_steps=3 format=3 uid="uid://dh016raw2i687"]

[ext_resource type="Texture2D" uid="uid://1ih54rpuwnea" path="res://art/pieces/black_queen.png" id="1_00dlr"]
[ext_resource type="Script" path="res://scripts/pieces/queen.gd" id="2_e8uv1"]

[node name="BlackQueen" type="TextureRect"]
offset_right = 40.0
offset_bottom = 40.0
pivot_offset = Vector2(50, 50)
texture = ExtResource("1_00dlr")
script = ExtResource("2_e8uv1")
