[gd_scene load_steps=3 format=3 uid="uid://ds4ijaqhnsqvp"]

[ext_resource type="Texture2D" uid="uid://c8y43jt5l5fvm" path="res://art/pieces/white_queen.png" id="1_o3lib"]
[ext_resource type="Script" path="res://scripts/pieces/queen.gd" id="2_s6aqc"]

[node name="WhiteQueen" type="TextureRect"]
offset_right = 40.0
offset_bottom = 40.0
pivot_offset = Vector2(50, 50)
texture = ExtResource("1_o3lib")
script = ExtResource("2_s6aqc")
