[gd_scene load_steps=3 format=3 uid="uid://csj76x0oo0q7o"]

[ext_resource type="Texture2D" uid="uid://jl46jr0psaak" path="res://art/pieces/white_knight.png" id="1_l21bu"]
[ext_resource type="Script" path="res://scripts/pieces/knight.gd" id="2_w4iac"]

[node name="WhiteKnight" type="TextureRect"]
offset_right = 40.0
offset_bottom = 40.0
pivot_offset = Vector2(50, 50)
texture = ExtResource("1_l21bu")
script = ExtResource("2_w4iac")
